{
   "type": "mssql",
   "host": "demoapp01.database.windows.net",
   "username": "rooter",
   "password": "Password123",
   "database": "newdb",
   "options": {
        "encrypt": true
   },
   "synchronize": true,
   "logging": false,
   "entities": [
      "src/entity/**/*.ts"
   ],
   "migrations": [
      "src/migration/**/*.ts"
   ],
   "subscribers": [
      "src/subscriber/**/*.ts"
   ],
   "cli": {
      "entitiesDir": "src/entity",
      "migrationsDir": "src/migration",
      "subscribersDir": "src/subscriber"
   }
}